<?xml version="1.0" encoding="UTF-8"?>
<!DOCTYPE svg PUBLIC "-//W3C//DTD SVG 1.1//EN" "http://www.w3.org/Graphics/SVG/1.1/DTD/svg11.dtd">
<svg xmlns="http://www.w3.org/2000/svg" version="1.1" width="1350px" height="400px" style="shape-rendering:geometricPrecision; text-rendering:geometricPrecision; image-rendering:optimizeQuality; fill-rule:evenodd; clip-rule:evenodd" xmlns:xlink="http://www.w3.org/1999/xlink">
<g><path style="opacity:1" fill="#fefefe" d="M -0.5,-0.5 C 449.5,-0.5 899.5,-0.5 1349.5,-0.5C 1349.5,132.833 1349.5,266.167 1349.5,399.5C 899.5,399.5 449.5,399.5 -0.5,399.5C -0.5,266.167 -0.5,132.833 -0.5,-0.5 Z"/></g>
<g><path style="opacity:1" fill="#0760ce" d="M 132.5,118.5 C 160.835,118.333 189.169,118.5 217.5,119C 262.108,122.691 292.608,145.191 309,186.5C 321.938,230.091 311.771,267.258 278.5,298C 263.487,309.787 246.487,317.121 227.5,320C 210.363,321.105 193.196,321.605 176,321.5C 161.261,321.496 146.594,321.163 132,320.5C 131.171,253.096 131.337,185.763 132.5,118.5 Z"/></g>
<g><path style="opacity:1" fill="#0d0d0d" d="M 818.5,120.5 C 824.909,120.183 831.243,120.683 837.5,122C 838.334,124.712 838,127.379 836.5,130C 831.302,129.302 826.135,129.469 821,130.5C 820.501,134.486 820.334,138.486 820.5,142.5C 824.833,142.5 829.167,142.5 833.5,142.5C 833.5,145.5 833.5,148.5 833.5,151.5C 829.167,151.5 824.833,151.5 820.5,151.5C 820.5,163.833 820.5,176.167 820.5,188.5C 817.833,188.5 815.167,188.5 812.5,188.5C 812.5,176.167 812.5,163.833 812.5,151.5C 811.5,151.5 810.5,151.5 809.5,151.5C 809.5,148.5 809.5,145.5 809.5,142.5C 810.833,142.5 812.167,142.5 813.5,142.5C 813.334,136.824 813.501,131.157 814,125.5C 815.059,123.341 816.559,121.674 818.5,120.5 Z"/></g>
<g><path style="opacity:1" fill="#070707" d="M 566.5,122.5 C 568.722,122.178 570.556,122.845 572,124.5C 573.023,128.317 572.523,131.817 570.5,135C 568.251,135.863 566.418,135.363 565,133.5C 564.013,129.525 564.513,125.859 566.5,122.5 Z"/></g>
<g><path style="opacity:1" fill="#7f7f7f" d="M 754.5,128.5 C 744.833,128.5 735.167,128.5 725.5,128.5C 725.5,129.833 725.5,131.167 725.5,132.5C 724.549,131.081 724.216,129.415 724.5,127.5C 734.681,127.173 744.681,127.506 754.5,128.5 Z"/></g>
<g><path style="opacity:1" fill="#fdfefe" d="M 142.5,129.5 C 148.568,128.174 154.734,128.174 161,129.5C 165.735,142.539 170.568,155.539 175.5,168.5C 169.202,169.496 162.868,169.83 156.5,169.5C 156.5,203.833 156.5,238.167 156.5,272.5C 162.842,272.334 169.175,272.5 175.5,273C 170.407,286.111 165.407,299.278 160.5,312.5C 154.872,313.495 149.206,313.829 143.5,313.5C 144.287,308.304 145.787,303.304 148,298.5C 148.667,247.167 148.667,195.833 148,144.5C 146.432,139.286 144.599,134.286 142.5,129.5 Z"/></g>
<g><path style="opacity:1" fill="#080808" d="M 342.5,128.5 C 346.833,128.5 351.167,128.5 355.5,128.5C 361.167,148.5 366.833,168.5 372.5,188.5C 369.428,188.817 366.428,188.484 363.5,187.5C 362.319,183.772 360.985,180.105 359.5,176.5C 352.189,175.335 344.856,175.169 337.5,176C 336.093,179.786 334.76,183.619 333.5,187.5C 330.5,188.833 327.5,188.833 324.5,187.5C 330.51,167.805 336.51,148.139 342.5,128.5 Z"/></g>
<g><path style="opacity:1" fill="#030303" d="M 754.5,128.5 C 759.84,128.665 763.34,131.332 765,136.5C 765.667,151.167 765.667,165.833 765,180.5C 763.895,183.937 761.728,186.437 758.5,188C 747.505,188.5 736.505,188.667 725.5,188.5C 725.5,169.833 725.5,151.167 725.5,132.5C 725.5,131.167 725.5,129.833 725.5,128.5C 735.167,128.5 744.833,128.5 754.5,128.5 Z"/></g>
<g><path style="opacity:1" fill="#fdfdfd" d="M 733.5,137.5 C 740.508,137.334 747.508,137.5 754.5,138C 755.333,138.833 756.167,139.667 757,140.5C 757.667,152.167 757.667,163.833 757,175.5C 756.692,176.308 756.192,176.975 755.5,177.5C 748.224,178.465 740.891,178.799 733.5,178.5C 733.5,164.833 733.5,151.167 733.5,137.5 Z"/></g>
<g><path style="opacity:1" fill="#eeeeee" d="M 347.5,137.5 C 348.497,137.47 349.164,137.97 349.5,139C 352.068,147.536 354.734,156.036 357.5,164.5C 351.5,165.833 345.5,165.833 339.5,164.5C 342.576,155.606 345.243,146.606 347.5,137.5 Z"/></g>
<g><path style="opacity:1" fill="#020202" d="M 544.5,141.5 C 550.542,140.374 555.542,142.041 559.5,146.5C 558.949,149.056 557.949,151.389 556.5,153.5C 552.191,150.743 547.525,149.909 542.5,151C 541.874,151.75 541.374,152.584 541,153.5C 540.5,165.162 540.333,176.829 540.5,188.5C 538.167,188.5 535.833,188.5 533.5,188.5C 533.5,173.167 533.5,157.833 533.5,142.5C 536.157,142.162 538.49,142.829 540.5,144.5C 541.901,143.479 543.235,142.479 544.5,141.5 Z"/></g>
<g><path style="opacity:1" fill="#090909" d="M 380.5,142.5 C 388.84,142.334 397.173,142.5 405.5,143C 407.321,145.456 407.988,148.289 407.5,151.5C 399.826,151.334 392.159,151.5 384.5,152C 383.167,154.667 383.167,157.333 384.5,160C 405.773,155.602 413.606,163.769 408,184.5C 407.167,185.333 406.333,186.167 405.5,187C 396.268,188.611 386.935,188.945 377.5,188C 376.605,184.905 376.605,181.738 377.5,178.5C 385.131,179.564 392.798,179.731 400.5,179C 401.833,176 401.833,173 400.5,170C 394.167,169.667 387.833,169.333 381.5,169C 377.753,167.013 375.919,163.846 376,159.5C 374.378,152.885 375.878,147.219 380.5,142.5 Z"/></g>
<g><path style="opacity:1" fill="#060606" d="M 419.5,142.5 C 427.611,142.065 435.611,142.565 443.5,144C 445.041,145.579 446.208,147.413 447,149.5C 447.5,156.492 447.666,163.492 447.5,170.5C 439.125,170.74 430.792,170.407 422.5,169.5C 421.994,173.007 422.66,176.174 424.5,179C 431.038,179.775 437.538,179.609 444,178.5C 446.171,179.778 447.338,181.778 447.5,184.5C 447.219,186.778 445.885,187.945 443.5,188C 435.833,188.667 428.167,188.667 420.5,188C 419.069,187.535 417.903,186.701 417,185.5C 415.419,173.558 415.085,161.558 416,149.5C 416.133,146.596 417.3,144.262 419.5,142.5 Z"/></g>
<g><path style="opacity:1" fill="#080808" d="M 485.5,148.5 C 484.596,149.209 484.263,150.209 484.5,151.5C 482.833,151.5 481.167,151.5 479.5,151.5C 473.5,151.5 467.5,151.5 461.5,151.5C 461.5,154.5 461.5,157.5 461.5,160.5C 467.842,160.334 474.175,160.5 480.5,161C 482.329,161.273 483.829,162.107 485,163.5C 486.581,169.723 486.915,176.056 486,182.5C 485.727,184.329 484.893,185.829 483.5,187C 478.609,188.114 473.609,188.614 468.5,188.5C 464.167,188.333 459.833,188.167 455.5,188C 453.403,185.159 453.403,182.159 455.5,179C 463.114,179.561 470.78,179.561 478.5,179C 479.833,176 479.833,173 478.5,170C 471.833,169.667 465.167,169.333 458.5,169C 454.133,165.793 452.466,161.459 453.5,156C 452.459,150.495 454.126,146.162 458.5,143C 466.833,142.333 475.167,142.333 483.5,143C 485.192,144.401 485.859,146.234 485.5,148.5 Z"/></g>
<g><path style="opacity:1" fill="#0a0a0a" d="M 497.5,142.5 C 505.507,142.334 513.507,142.5 521.5,143C 524.094,144.339 525.594,146.506 526,149.5C 526.667,160.167 526.667,170.833 526,181.5C 525.464,183.869 524.297,185.869 522.5,187.5C 514.215,188.636 505.882,188.803 497.5,188C 496.667,187.167 495.833,186.333 495,185.5C 493.373,172.929 493.04,160.262 494,147.5C 494.997,145.677 496.164,144.01 497.5,142.5 Z"/></g>
<g><path style="opacity:1" fill="#111111" d="M 564.5,142.5 C 567.167,142.5 569.833,142.5 572.5,142.5C 572.5,157.833 572.5,173.167 572.5,188.5C 569.833,188.5 567.167,188.5 564.5,188.5C 564.5,173.167 564.5,157.833 564.5,142.5 Z"/></g>
<g><path style="opacity:1" fill="#090909" d="M 602.5,161.5 C 603.568,162.434 604.901,162.768 606.5,162.5C 606.81,159.287 606.477,156.287 605.5,153.5C 600.944,151.558 595.944,150.892 590.5,151.5C 587.833,151.5 585.167,151.5 582.5,151.5C 582.5,148.833 582.5,146.167 582.5,143.5C 590.99,142.343 599.657,142.176 608.5,143C 610.815,144.109 612.315,145.943 613,148.5C 613.5,161.829 613.667,175.163 613.5,188.5C 610.38,188.844 607.547,188.177 605,186.5C 582.118,193.285 574.618,185.452 582.5,163C 589.05,161.58 595.716,161.08 602.5,161.5 Z"/></g>
<g><path style="opacity:1" fill="#070707" d="M 624.5,142.5 C 632.84,142.334 641.173,142.5 649.5,143C 651.321,145.456 651.988,148.289 651.5,151.5C 643.826,151.334 636.159,151.5 628.5,152C 627.167,154.667 627.167,157.333 628.5,160C 634.5,160.333 640.5,160.667 646.5,161C 648.329,161.273 649.829,162.107 651,163.5C 652.591,170.392 652.924,177.392 652,184.5C 650.786,186.049 649.286,187.215 647.5,188C 638.833,188.667 630.167,188.667 621.5,188C 620.005,184.634 620.338,181.468 622.5,178.5C 629.783,179.632 637.117,179.799 644.5,179C 645.833,176 645.833,173 644.5,170C 638.167,169.667 631.833,169.333 625.5,169C 621.753,167.013 619.919,163.846 620,159.5C 618.378,152.885 619.878,147.219 624.5,142.5 Z"/></g>
<g><path style="opacity:1" fill="#090909" d="M 670.5,143.5 C 673.287,142.523 676.287,142.19 679.5,142.5C 682.33,154.487 685.163,166.487 688,178.5C 691.281,166.592 694.114,154.592 696.5,142.5C 699.572,142.183 702.572,142.516 705.5,143.5C 700.623,162.342 695.123,181.009 689,199.5C 684.606,208.64 677.773,210.973 668.5,206.5C 667.718,203.154 668.051,199.821 669.5,196.5C 678.171,201.077 683.505,198.577 685.5,189C 684.552,188.517 683.552,188.351 682.5,188.5C 678.945,173.272 674.945,158.272 670.5,143.5 Z"/></g>
<g><path style="opacity:1" fill="#090909" d="M 777.5,142.5 C 784.508,142.334 791.508,142.5 798.5,143C 800.286,143.785 801.786,144.951 803,146.5C 804.401,154.415 804.901,162.415 804.5,170.5C 796.5,170.5 788.5,170.5 780.5,170.5C 780.223,173.448 780.556,176.281 781.5,179C 788.861,179.683 796.195,179.517 803.5,178.5C 803.724,180.787 804.391,182.953 805.5,185C 805.095,185.945 804.428,186.612 803.5,187C 794.887,188.505 786.22,188.839 777.5,188C 774.906,186.661 773.406,184.494 773,181.5C 772.333,170.833 772.333,160.167 773,149.5C 773.53,146.415 775.03,144.082 777.5,142.5 Z"/></g>
<g><path style="opacity:1" fill="#080808" d="M 842.5,142.5 C 850.611,142.065 858.611,142.565 866.5,144C 868.317,145.8 869.484,147.966 870,150.5C 870.5,157.158 870.666,163.825 870.5,170.5C 862.167,170.5 853.833,170.5 845.5,170.5C 845.274,173.249 845.607,175.916 846.5,178.5C 853.172,179.759 859.839,179.759 866.5,178.5C 868.812,179.774 870.145,181.774 870.5,184.5C 870.41,186.425 869.41,187.592 867.5,188C 859.167,188.667 850.833,188.667 842.5,188C 841.667,187.167 840.833,186.333 840,185.5C 838.393,172.904 838.059,160.237 839,147.5C 839.997,145.677 841.164,144.01 842.5,142.5 Z"/></g>
<g><path style="opacity:1" fill="#0b0b0b" d="M 877.5,142.5 C 880.29,142.222 882.79,142.889 885,144.5C 892.736,141.908 900.403,141.908 908,144.5C 908.862,146.087 909.529,147.754 910,149.5C 910.5,162.496 910.667,175.496 910.5,188.5C 907.833,188.5 905.167,188.5 902.5,188.5C 902.667,176.495 902.5,164.495 902,152.5C 896.259,151.525 890.425,151.192 884.5,151.5C 884.5,163.833 884.5,176.167 884.5,188.5C 882.167,188.5 879.833,188.5 877.5,188.5C 877.5,173.167 877.5,157.833 877.5,142.5 Z"/></g>
<g><path style="opacity:1" fill="#070707" d="M 921.5,142.5 C 929.84,142.334 938.173,142.5 946.5,143C 948.321,145.456 948.988,148.289 948.5,151.5C 940.826,151.334 933.159,151.5 925.5,152C 924.167,154.667 924.167,157.333 925.5,160C 931.5,160.333 937.5,160.667 943.5,161C 945.329,161.273 946.829,162.107 948,163.5C 949.591,170.392 949.924,177.392 949,184.5C 947.786,186.049 946.286,187.215 944.5,188C 935.833,188.667 927.167,188.667 918.5,188C 917.643,187.311 916.977,186.478 916.5,185.5C 917.051,182.944 918.051,180.611 919.5,178.5C 926.783,179.632 934.117,179.799 941.5,179C 942.833,176 942.833,173 941.5,170C 935.167,169.667 928.833,169.333 922.5,169C 918.753,167.013 916.919,163.846 917,159.5C 915.378,152.885 916.878,147.219 921.5,142.5 Z"/></g>
<g><path style="opacity:1" fill="#050505" d="M 966.5,151.5 C 963.467,151.868 960.8,151.202 958.5,149.5C 958.244,147.208 958.577,145.041 959.5,143C 968.167,142.333 976.833,142.333 985.5,143C 986.333,143.833 987.167,144.667 988,145.5C 989.466,159.736 989.966,174.069 989.5,188.5C 986.568,188.716 983.902,188.049 981.5,186.5C 961.213,194.296 953.046,187.63 957,166.5C 957.785,164.714 958.951,163.214 960.5,162C 967.869,161.274 975.202,161.441 982.5,162.5C 982.789,158.894 982.456,155.394 981.5,152C 976.511,151.501 971.511,151.334 966.5,151.5 Z"/></g>
<g><path style="opacity:1" fill="#fdfdfd" d="M 439.5,161.5 C 434.167,161.5 428.833,161.5 423.5,161.5C 423.5,158.5 423.5,155.5 423.5,152.5C 428.64,151.512 433.974,151.179 439.5,151.5C 439.5,154.833 439.5,158.167 439.5,161.5 Z"/></g>
<g><path style="opacity:1" fill="#717171" d="M 485.5,148.5 C 485.5,149.833 485.5,151.167 485.5,152.5C 483.265,152.795 481.265,152.461 479.5,151.5C 481.167,151.5 482.833,151.5 484.5,151.5C 484.263,150.209 484.596,149.209 485.5,148.5 Z"/></g>
<g><path style="opacity:1" fill="#fdfdfd" d="M 501.5,151.5 C 507.093,151.193 512.593,151.527 518,152.5C 518.816,161.412 518.65,170.245 517.5,179C 511.916,179.806 506.416,179.639 501,178.5C 500.196,169.422 500.363,160.422 501.5,151.5 Z"/></g>
<g><path style="opacity:1" fill="#ababab" d="M 582.5,143.5 C 582.5,146.167 582.5,148.833 582.5,151.5C 585.167,151.5 587.833,151.5 590.5,151.5C 587.713,152.477 584.713,152.81 581.5,152.5C 581.19,149.287 581.523,146.287 582.5,143.5 Z"/></g>
<g><path style="opacity:1" fill="#fefefe" d="M 796.5,152.5 C 796.5,155.5 796.5,158.5 796.5,161.5C 791.167,161.5 785.833,161.5 780.5,161.5C 780.216,158.223 780.549,155.057 781.5,152C 786.684,151.184 791.684,151.35 796.5,152.5 Z"/></g>
<g><path style="opacity:1" fill="#f1f1f1" d="M 846.5,151.5 C 851.511,151.334 856.511,151.501 861.5,152C 862.456,155.394 862.789,158.894 862.5,162.5C 856.833,162.5 851.167,162.5 845.5,162.5C 845.244,158.731 845.577,155.064 846.5,151.5 Z"/></g>
<g><path style="opacity:1" fill="#9c9c9c" d="M 958.5,149.5 C 960.8,151.202 963.467,151.868 966.5,151.5C 964.052,152.473 961.385,152.806 958.5,152.5C 958.5,151.5 958.5,150.5 958.5,149.5 Z"/></g>
<g><path style="opacity:1" fill="#585858" d="M 605.5,153.5 C 606.477,156.287 606.81,159.287 606.5,162.5C 604.901,162.768 603.568,162.434 602.5,161.5C 603.5,161.5 604.5,161.5 605.5,161.5C 605.5,158.833 605.5,156.167 605.5,153.5 Z"/></g>
<g><path style="opacity:1" fill="#868686" d="M 423.5,152.5 C 423.5,155.5 423.5,158.5 423.5,161.5C 428.833,161.5 434.167,161.5 439.5,161.5C 434.025,162.489 428.358,162.822 422.5,162.5C 422.187,158.958 422.521,155.625 423.5,152.5 Z"/></g>
<g><path style="opacity:1" fill="#898989" d="M 796.5,152.5 C 797.479,155.625 797.813,158.958 797.5,162.5C 791.642,162.822 785.975,162.489 780.5,161.5C 785.833,161.5 791.167,161.5 796.5,161.5C 796.5,158.5 796.5,155.5 796.5,152.5 Z"/></g>
<g><path style="opacity:1" fill="#f4f4f4" d="M 588.5,168.5 C 594.167,168.5 599.833,168.5 605.5,168.5C 605.5,172.167 605.5,175.833 605.5,179.5C 599.824,179.666 594.157,179.499 588.5,179C 585.88,175.502 585.88,172.002 588.5,168.5 Z"/></g>
<g><path style="opacity:1" fill="#f5f5f5" d="M 964.5,168.5 C 970.5,168.5 976.5,168.5 982.5,168.5C 982.5,172.167 982.5,175.833 982.5,179.5C 976.463,179.829 970.463,179.496 964.5,178.5C 963.174,175.136 963.174,171.803 964.5,168.5 Z"/></g>
<g><path style="opacity:1" fill="#fcfdfe" d="M 183.5,176.5 C 198.873,176.121 214.206,176.621 229.5,178C 246.973,182.14 257.807,192.973 262,210.5C 265.516,238.614 253.682,256.114 226.5,263C 212.5,263.667 198.5,263.667 184.5,263C 184,262.5 183.5,262 183,261.5C 182.176,233.095 182.343,204.761 183.5,176.5 Z"/></g>
<g><path style="opacity:1" fill="#2268d0" d="M 323.5,215.5 C 550.5,215.5 777.5,215.5 1004.5,215.5C 1004.5,219.833 1004.5,224.167 1004.5,228.5C 777.5,228.5 550.5,228.5 323.5,228.5C 323.5,224.167 323.5,219.833 323.5,215.5 Z"/></g>
<g><path style="opacity:1" fill="#040404" d="M 478.5,237.5 C 480.833,237.5 483.167,237.5 485.5,237.5C 485.5,259.167 485.5,280.833 485.5,302.5C 482.38,302.844 479.547,302.177 477,300.5C 470.299,302.471 463.466,302.971 456.5,302C 454.513,300.681 453.346,298.848 453,296.5C 452.333,284.833 452.333,273.167 453,261.5C 453.785,259.714 454.951,258.214 456.5,257C 463.55,256.203 470.55,256.37 477.5,257.5C 478.497,250.866 478.83,244.2 478.5,237.5 Z"/></g>
<g><path style="opacity:1" fill="#040404" d="M 326.5,242.5 C 338.601,242.041 350.601,242.541 362.5,244C 364.894,245.952 366.394,248.452 367,251.5C 367.913,266.213 367.58,280.88 366,295.5C 364.833,298.667 362.667,300.833 359.5,302C 348.839,302.5 338.172,302.667 327.5,302.5C 327.798,282.466 327.464,262.466 326.5,242.5 Z"/></g>
<g><path style="opacity:1" fill="#fcfcfc" d="M 335.5,251.5 C 342.508,251.334 349.508,251.5 356.5,252C 357.701,252.903 358.535,254.069 359,255.5C 359.667,266.833 359.667,278.167 359,289.5C 358.167,290.333 357.333,291.167 356.5,292C 349.508,292.5 342.508,292.666 335.5,292.5C 335.5,278.833 335.5,265.167 335.5,251.5 Z"/></g>
<g><path style="opacity:1" fill="#060606" d="M 384.5,284.5 C 383.791,283.596 382.791,283.263 381.5,283.5C 381.194,286.385 381.527,289.052 382.5,291.5C 382.611,292.117 382.944,292.617 383.5,293C 390.038,293.775 396.538,293.609 403,292.5C 405.171,293.778 406.338,295.778 406.5,298.5C 406.219,300.778 404.885,301.945 402.5,302C 394.833,302.667 387.167,302.667 379.5,302C 376.906,300.661 375.406,298.494 375,295.5C 374.333,284.5 374.333,273.5 375,262.5C 375.398,259.768 376.898,257.935 379.5,257C 386.5,256.333 393.5,256.333 400.5,257C 403.381,258.251 405.214,260.417 406,263.5C 406.5,270.492 406.666,277.492 406.5,284.5C 399.167,284.5 391.833,284.5 384.5,284.5 Z"/></g>
<g><path style="opacity:1" fill="#0a0a0a" d="M 413.5,256.5 C 415.833,256.5 418.167,256.5 420.5,256.5C 420.333,268.171 420.5,279.838 421,291.5C 426.197,293.42 431.697,294.087 437.5,293.5C 437.5,281.167 437.5,268.833 437.5,256.5C 440.167,256.5 442.833,256.5 445.5,256.5C 445.5,271.833 445.5,287.167 445.5,302.5C 442.38,302.844 439.547,302.177 437,300.5C 430.634,302.458 424.134,302.958 417.5,302C 416.667,301.167 415.833,300.333 415,299.5C 413.57,285.226 413.07,270.892 413.5,256.5 Z"/></g>
<g><path style="opacity:1" fill="#060606" d="M 515.5,275.5 C 516.568,276.434 517.901,276.768 519.5,276.5C 519.813,272.958 519.479,269.625 518.5,266.5C 511.018,265.508 503.352,265.175 495.5,265.5C 495.223,262.552 495.556,259.719 496.5,257C 504.833,256.333 513.167,256.333 521.5,257C 523.815,258.109 525.315,259.943 526,262.5C 526.5,275.829 526.667,289.163 526.5,302.5C 523.472,302.661 520.639,301.994 518,300.5C 496.12,307.617 488.453,300.284 495,278.5C 495.833,277.667 496.667,276.833 497.5,276C 503.491,275.501 509.491,275.334 515.5,275.5 Z"/></g>
<g><path style="opacity:1" fill="#080808" d="M 537.5,256.5 C 546.173,256.334 554.84,256.5 563.5,257C 564.444,259.719 564.777,262.552 564.5,265.5C 556.826,265.334 549.159,265.5 541.5,266C 540.167,268.667 540.167,271.333 541.5,274C 547.833,274.333 554.167,274.667 560.5,275C 563.542,275.555 565.375,277.388 566,280.5C 567.098,287.385 566.431,294.051 564,300.5C 563.25,301.126 562.416,301.626 561.5,302C 552.833,302.667 544.167,302.667 535.5,302C 534.484,301.481 533.818,300.647 533.5,299.5C 533.915,297.091 534.582,294.758 535.5,292.5C 542.783,293.632 550.117,293.799 557.5,293C 558.833,290 558.833,287 557.5,284C 551.167,283.667 544.833,283.333 538.5,283C 537.069,282.535 535.903,281.701 535,280.5C 533.419,274.277 533.085,267.944 534,261.5C 534.997,259.677 536.164,258.01 537.5,256.5 Z"/></g>
<g><path style="opacity:1" fill="#fdfdfd" d="M 398.5,275.5 C 393.167,275.5 387.833,275.5 382.5,275.5C 382.5,272.833 382.5,270.167 382.5,267.5C 387.396,265.554 392.729,264.887 398.5,265.5C 398.5,268.833 398.5,272.167 398.5,275.5 Z"/></g>
<g><path style="opacity:1" fill="#f4f4f4" d="M 460.5,265.5 C 466.5,265.5 472.5,265.5 478.5,265.5C 478.666,274.506 478.5,283.506 478,292.5C 475.086,293.145 472.086,293.478 469,293.5C 465.724,293.442 462.724,292.776 460,291.5C 459.198,282.755 459.364,274.088 460.5,265.5 Z"/></g>
<g><path style="opacity:1" fill="#8a8a8a" d="M 518.5,266.5 C 519.479,269.625 519.813,272.958 519.5,276.5C 517.901,276.768 516.568,276.434 515.5,275.5C 516.5,275.5 517.5,275.5 518.5,275.5C 518.5,272.5 518.5,269.5 518.5,266.5 Z"/></g>
<g><path style="opacity:1" fill="#818181" d="M 382.5,267.5 C 382.5,270.167 382.5,272.833 382.5,275.5C 387.833,275.5 393.167,275.5 398.5,275.5C 393.025,276.489 387.358,276.822 381.5,276.5C 381.19,273.287 381.523,270.287 382.5,267.5 Z"/></g>
<g><path style="opacity:1" fill="#b0b0b0" d="M 501.5,283.5 C 507.31,282.51 513.31,282.177 519.5,282.5C 519.815,286.371 519.482,290.038 518.5,293.5C 518.5,290.167 518.5,286.833 518.5,283.5C 512.833,283.5 507.167,283.5 501.5,283.5 Z"/></g>
<g><path style="opacity:1" fill="#fefefe" d="M 501.5,283.5 C 507.167,283.5 512.833,283.5 518.5,283.5C 518.5,286.833 518.5,290.167 518.5,293.5C 512.824,293.666 507.157,293.499 501.5,293C 500.182,289.731 500.182,286.565 501.5,283.5 Z"/></g>
<g><path style="opacity:1" fill="#8e8e8e" d="M 384.5,284.5 C 382.656,286.279 381.99,288.612 382.5,291.5C 381.527,289.052 381.194,286.385 381.5,283.5C 382.791,283.263 383.791,283.596 384.5,284.5 Z"/></g>
</svg>
