<?xml version="1.0" encoding="UTF-8"?>
<!DOCTYPE svg PUBLIC "-//W3C//DTD SVG 1.1//EN" "http://www.w3.org/Graphics/SVG/1.1/DTD/svg11.dtd">
<svg xmlns="http://www.w3.org/2000/svg" version="1.1" width="950px" height="300px" style="shape-rendering:geometricPrecision; text-rendering:geometricPrecision; image-rendering:optimizeQuality; fill-rule:evenodd; clip-rule:evenodd" xmlns:xlink="http://www.w3.org/1999/xlink">
<g><path style="opacity:0.986" fill="#0560ce" d="M 31.5,43.5 C 61.5019,43.3334 91.5019,43.5 121.5,44C 165.478,48.8876 194.978,72.0542 210,113.5C 221.78,156.811 211.28,193.645 178.5,224C 162.562,236.299 144.562,243.633 124.5,246C 93.5018,246.5 62.5018,246.667 31.5,246.5C 31.5,178.833 31.5,111.167 31.5,43.5 Z M 83.5,102.5 C 98.5037,102.333 113.504,102.5 128.5,103C 150.098,108.606 161.432,122.606 162.5,145C 161.344,167.343 150.01,181.343 128.5,187C 114.534,188.509 100.534,188.842 86.5,188C 85.5838,187.626 84.7504,187.126 84,186.5C 83.5,158.502 83.3334,130.502 83.5,102.5 Z"/></g>
<g><path style="opacity:0.922" fill="#fefffe" d="M 718.5,44.5 C 723.179,44.3342 727.845,44.5008 732.5,45C 740.411,46.2131 741.744,50.0465 736.5,56.5C 731.646,54.8475 726.646,54.1808 721.5,54.5C 720.705,58.7853 720.372,63.1186 720.5,67.5C 724.833,67.5 729.167,67.5 733.5,67.5C 733.5,70.5 733.5,73.5 733.5,76.5C 729.167,76.5 724.833,76.5 720.5,76.5C 720.5,88.8333 720.5,101.167 720.5,113.5C 717.833,113.5 715.167,113.5 712.5,113.5C 712.5,101.167 712.5,88.8333 712.5,76.5C 711.167,76.5 709.833,76.5 708.5,76.5C 708.5,73.5 708.5,70.5 708.5,67.5C 709.833,67.5 711.167,67.5 712.5,67.5C 712.334,62.4889 712.501,57.4889 713,52.5C 714.104,49.2788 715.937,46.6122 718.5,44.5 Z"/></g>
<g><path style="opacity:0.81" fill="#fefffe" d="M 465.5,47.5 C 467.527,47.3379 469.527,47.5045 471.5,48C 474.456,52.6647 474.122,56.9981 470.5,61C 467.648,61.9132 465.481,61.0799 464,58.5C 463.112,54.5979 463.612,50.9312 465.5,47.5 Z"/></g>
<g><path style="opacity:0.904" fill="#fefffe" d="M 242.5,52.5 C 246.833,52.5 251.167,52.5 255.5,52.5C 260.997,72.8244 266.997,92.991 273.5,113C 269.848,113.499 266.182,113.665 262.5,113.5C 261.344,109.207 260.344,104.874 259.5,100.5C 252.167,100.5 244.833,100.5 237.5,100.5C 236.707,104.88 235.707,109.214 234.5,113.5C 231.167,113.5 227.833,113.5 224.5,113.5C 230.037,93.0145 236.037,72.6812 242.5,52.5 Z M 248.5,64.5 C 251.332,72.3288 253.998,80.3288 256.5,88.5C 251.198,89.6628 245.864,89.8295 240.5,89C 243.091,80.803 245.757,72.6363 248.5,64.5 Z"/></g>
<g><path style="opacity:0.889" fill="#fefffe" d="M 624.5,52.5 C 636.576,52.0625 648.576,52.5625 660.5,54C 662.81,55.6374 664.31,57.804 665,60.5C 667,75.8333 667,91.1667 665,106.5C 664.208,108.587 663.041,110.421 661.5,112C 649.267,113.46 636.934,113.96 624.5,113.5C 624.5,93.1667 624.5,72.8333 624.5,52.5 Z M 634.5,63.5 C 641.508,63.3337 648.508,63.5004 655.5,64C 656.191,65.0674 656.691,66.2341 657,67.5C 657.667,77.8333 657.667,88.1667 657,98.5C 656.691,99.7659 656.191,100.933 655.5,102C 648.589,103.384 641.589,103.884 634.5,103.5C 634.5,90.1667 634.5,76.8333 634.5,63.5 Z"/></g>
<g><path style="opacity:1" fill="#fdfefe" d="M 42.5,54.5 C 48.5678,53.1742 54.7345,53.1742 61,54.5C 65.735,67.5386 70.5684,80.5386 75.5,93.5C 69.2015,94.4963 62.8682,94.8297 56.5,94.5C 56.5,128.833 56.5,163.167 56.5,197.5C 62.8421,197.334 69.1754,197.5 75.5,198C 70.4066,211.111 65.4066,224.278 60.5,237.5C 54.8722,238.495 49.2055,238.829 43.5,238.5C 44.2868,233.304 45.7868,228.304 48,223.5C 48.6667,172.167 48.6667,120.833 48,69.5C 46.4322,64.2862 44.5989,59.2862 42.5,54.5 Z"/></g>
<g><path style="opacity:0.857" fill="#fefffe" d="M 446.5,65.5 C 451.726,65.6385 456.392,67.3052 460.5,70.5C 459.653,73.5539 458.653,76.5539 457.5,79.5C 454.113,77.4031 450.447,76.0698 446.5,75.5C 444.813,75.7605 443.313,76.4272 442,77.5C 441.5,89.4954 441.333,101.495 441.5,113.5C 438.5,113.5 435.5,113.5 432.5,113.5C 432.5,97.8333 432.5,82.1667 432.5,66.5C 435.482,66.1044 438.149,66.7711 440.5,68.5C 442.604,67.4805 444.604,66.4805 446.5,65.5 Z"/></g>
<g><path style="opacity:0.905" fill="#fefffe" d="M 281.5,66.5 C 290.235,66.1241 298.902,66.6241 307.5,68C 308.395,71.0951 308.395,74.2617 307.5,77.5C 299.83,77.222 292.164,76.8886 284.5,76.5C 282.862,79.5732 283.195,82.4065 285.5,85C 292.167,85.3333 298.833,85.6667 305.5,86C 307.049,87.214 308.215,88.714 309,90.5C 309.667,96.5 309.667,102.5 309,108.5C 308.215,110.286 307.049,111.786 305.5,113C 295.786,113.807 286.119,113.641 276.5,112.5C 275.593,109.592 275.927,106.758 277.5,104C 284.838,103.89 292.172,103.89 299.5,104C 301.971,101.046 301.971,98.0463 299.5,95C 277.97,99.475 270.47,91.3084 277,70.5C 278.397,68.9297 279.897,67.5964 281.5,66.5 Z"/></g>
<g><path style="opacity:0.9" fill="#fefffe" d="M 321.5,66.5 C 327.509,66.3338 333.509,66.5005 339.5,67C 342.034,67.5163 344.2,68.683 346,70.5C 347.41,79.0836 347.91,87.7502 347.5,96.5C 339.486,96.4324 331.486,96.099 323.5,95.5C 323.187,98.2469 323.52,100.914 324.5,103.5C 331.832,104.14 339.165,104.473 346.5,104.5C 347.265,106.295 347.932,108.128 348.5,110C 348.18,111.653 347.18,112.653 345.5,113C 336.833,113.667 328.167,113.667 319.5,113C 316.323,111.151 314.823,108.318 315,104.5C 314.333,95.1667 314.333,85.8333 315,76.5C 314.964,71.5371 317.13,68.2037 321.5,66.5 Z M 324.5,76.5 C 329.233,76.2232 333.9,76.5565 338.5,77.5C 339.484,80.4281 339.817,83.4281 339.5,86.5C 334.167,86.5 328.833,86.5 323.5,86.5C 323.253,83.0613 323.586,79.728 324.5,76.5 Z"/></g>
<g><path style="opacity:0.915" fill="#fefffe" d="M 359.5,66.5 C 367.917,66.0943 376.251,66.5943 384.5,68C 385.451,71.0567 385.784,74.2234 385.5,77.5C 377.827,77.0543 370.16,76.8876 362.5,77C 360.923,79.9569 361.256,82.6236 363.5,85C 369.833,85.3333 376.167,85.6667 382.5,86C 383.416,86.3742 384.25,86.8742 385,87.5C 388.496,95.837 388.329,104.004 384.5,112C 374.6,113.615 364.6,113.949 354.5,113C 353.605,109.905 353.605,106.738 354.5,103.5C 362.411,104.152 370.244,104.152 378,103.5C 378.777,100.571 378.61,97.7372 377.5,95C 371.167,94.6667 364.833,94.3333 358.5,94C 357.069,93.5348 355.903,92.7014 355,91.5C 353.419,85.2774 353.085,78.9441 354,72.5C 355.36,69.9774 357.193,67.9774 359.5,66.5 Z"/></g>
<g><path style="opacity:0.903" fill="#fefffe" d="M 398.5,66.5 C 405.841,66.3337 413.174,66.5003 420.5,67C 422.286,67.7845 423.786,68.9512 425,70.5C 426.607,83.0961 426.941,95.7628 426,108.5C 425.215,110.286 424.049,111.786 422.5,113C 413.833,113.667 405.167,113.667 396.5,113C 395.667,112.167 394.833,111.333 394,110.5C 392.396,98.5714 392.063,86.5714 393,74.5C 393.49,70.8539 395.323,68.1872 398.5,66.5 Z M 402.5,76.5 C 407.179,76.3342 411.845,76.5008 416.5,77C 417,77.5 417.5,78 418,78.5C 418.667,86.5 418.667,94.5 418,102.5C 417.5,103 417,103.5 416.5,104C 411.581,104.802 406.748,104.635 402,103.5C 401.691,102.234 401.191,101.067 400.5,100C 401.833,93.3333 401.833,86.6667 400.5,80C 401.305,78.8873 401.972,77.7206 402.5,76.5 Z"/></g>
<g><path style="opacity:0.928" fill="#fefffe" d="M 464.5,66.5 C 467.167,66.5 469.833,66.5 472.5,66.5C 472.5,82.1667 472.5,97.8333 472.5,113.5C 469.833,113.5 467.167,113.5 464.5,113.5C 464.5,97.8333 464.5,82.1667 464.5,66.5 Z"/></g>
<g><path style="opacity:0.907" fill="#fefffe" d="M 490.5,66.5 C 496.176,66.3339 501.843,66.5006 507.5,67C 510,68.1667 511.833,70 513,72.5C 513.5,86.1626 513.667,99.8293 513.5,113.5C 503.54,113.217 493.54,113.051 483.5,113C 481.513,111.681 480.346,109.848 480,107.5C 479.608,104.812 479.108,102.145 478.5,99.5C 478.404,89.2601 483.404,84.5934 493.5,85.5C 497.525,85.668 501.525,86.0013 505.5,86.5C 505.784,83.2234 505.451,80.0567 504.5,77C 496.84,76.8876 489.173,77.0543 481.5,77.5C 481.335,74.4816 481.502,71.4816 482,68.5C 484.939,67.8719 487.772,67.2052 490.5,66.5 Z M 488.5,94.5 C 494.167,94.5 499.833,94.5 505.5,94.5C 505.665,97.5184 505.498,100.518 505,103.5C 499.554,104.806 494.054,104.806 488.5,103.5C 487.175,100.469 487.175,97.4692 488.5,94.5 Z"/></g>
<g><path style="opacity:0.904" fill="#fefffe" d="M 525.5,66.5 C 534.235,66.1241 542.902,66.6241 551.5,68C 552.395,71.0951 552.395,74.2617 551.5,77.5C 543.83,77.222 536.164,76.8886 528.5,76.5C 526.862,79.5732 527.195,82.4065 529.5,85C 536.167,85.3333 542.833,85.6667 549.5,86C 551.487,87.3189 552.654,89.1523 553,91.5C 553.667,97.1667 553.667,102.833 553,108.5C 552.215,110.286 551.049,111.786 549.5,113C 539.833,113.667 530.167,113.667 520.5,113C 519.508,109.93 519.841,106.93 521.5,104C 528.838,103.89 536.172,103.89 543.5,104C 546.167,101 546.167,98 543.5,95C 521.97,99.475 514.47,91.3084 521,70.5C 522.397,68.9297 523.897,67.5964 525.5,66.5 Z"/></g>
<g><path style="opacity:0.877" fill="#fefffe" d="M 570.5,66.5 C 574.03,65.9889 577.196,66.6556 580,68.5C 582.982,79.7608 585.649,91.0941 588,102.5C 590.839,90.4796 593.672,78.4796 596.5,66.5C 600.048,66.0949 603.381,66.5949 606.5,68C 601.411,88.9339 594.911,109.434 587,129.5C 580.302,135.885 573.469,136.052 566.5,130C 567.455,126.901 568.289,123.734 569,120.5C 577.737,126.178 582.904,123.844 584.5,113.5C 583.5,113.5 582.5,113.5 581.5,113.5C 577.675,97.8656 574.008,82.199 570.5,66.5 Z"/></g>
<g><path style="opacity:0.906" fill="#fefffe" d="M 678.5,66.5 C 684.842,66.3338 691.175,66.5005 697.5,67C 702.198,68.3705 704.698,71.5372 705,76.5C 705.5,83.1583 705.666,89.825 705.5,96.5C 697.152,96.4574 688.819,96.124 680.5,95.5C 680.02,98.6852 680.686,101.519 682.5,104C 689.518,104.331 696.518,104.331 703.5,104C 705.827,107.167 705.827,110.167 703.5,113C 694.5,113.667 685.5,113.667 676.5,113C 675.667,112.167 674.833,111.333 674,110.5C 672.374,98.2627 672.041,85.9294 673,73.5C 673.938,70.4025 675.772,68.0691 678.5,66.5 Z M 682.5,76.5 C 686.846,76.3343 691.179,76.501 695.5,77C 696.451,80.0567 696.784,83.2234 696.5,86.5C 691.167,86.5 685.833,86.5 680.5,86.5C 680.034,82.838 680.701,79.5046 682.5,76.5 Z"/></g>
<g><path style="opacity:0.899" fill="#fefffe" d="M 744.5,66.5 C 750.509,66.3338 756.509,66.5005 762.5,67C 766.667,67.8333 769.167,70.3333 770,74.5C 770.5,81.8258 770.666,89.1591 770.5,96.5C 762.483,96.4988 754.483,96.1655 746.5,95.5C 746.223,98.4475 746.556,101.281 747.5,104C 754.844,104.452 762.177,104.285 769.5,103.5C 769.665,105.827 770.331,107.993 771.5,110C 770.833,111.333 769.833,112.333 768.5,113C 759.5,113.667 750.5,113.667 741.5,113C 739.683,111.2 738.516,109.034 738,106.5C 737.333,95.8333 737.333,85.1667 738,74.5C 738.612,70.4029 740.779,67.7363 744.5,66.5 Z M 747.5,76.5 C 751.846,76.3343 756.179,76.501 760.5,77C 762.34,79.8263 763.006,82.9929 762.5,86.5C 757.167,86.5 751.833,86.5 746.5,86.5C 746.253,83.0613 746.586,79.728 747.5,76.5 Z"/></g>
<g><path style="opacity:0.891" fill="#fefffe" d="M 776.5,66.5 C 779.915,66.2612 783.081,66.9278 786,68.5C 792.109,67.0548 798.275,66.5548 804.5,67C 806.286,67.7845 807.786,68.9512 809,70.5C 810.449,84.7609 810.949,99.0942 810.5,113.5C 807.833,113.5 805.167,113.5 802.5,113.5C 802.667,101.829 802.5,90.1619 802,78.5C 801.5,78 801,77.5 800.5,77C 795.511,76.5007 790.511,76.3341 785.5,76.5C 785.409,88.6664 785.409,101 785.5,113.5C 782.5,113.5 779.5,113.5 776.5,113.5C 776.5,97.8333 776.5,82.1667 776.5,66.5 Z"/></g>
<g><path style="opacity:0.907" fill="#fefffe" d="M 822.5,66.5 C 831.235,66.1241 839.902,66.6241 848.5,68C 849.395,71.0951 849.395,74.2617 848.5,77.5C 842.648,77.5263 836.815,77.193 831,76.5C 824.435,76.6644 822.935,79.4977 826.5,85C 833.167,85.3333 839.833,85.6667 846.5,86C 849.912,89.789 851.245,94.289 850.5,99.5C 850.537,103.256 850.037,106.922 849,110.5C 848.097,111.701 846.931,112.535 845.5,113C 836.167,113.667 826.833,113.667 817.5,113C 816.508,109.93 816.841,106.93 818.5,104C 825.833,104 833.167,104 840.5,104C 841.833,101 841.833,98 840.5,95C 818.97,99.475 811.47,91.3084 818,70.5C 819.397,68.9297 820.897,67.5964 822.5,66.5 Z"/></g>
<g><path style="opacity:0.884" fill="#fefffe" d="M 867.5,66.5 C 873.176,66.3339 878.843,66.5006 884.5,67C 886.667,67.8333 888.167,69.3333 889,71.5C 890.429,85.4406 890.929,99.4406 890.5,113.5C 880.54,113.217 870.54,113.051 860.5,113C 858.741,111.992 857.574,110.492 857,108.5C 852.103,87.2413 860.27,79.908 881.5,86.5C 881.784,83.2234 881.451,80.0567 880.5,77C 873.176,76.9428 865.843,77.1094 858.5,77.5C 858.319,74.447 858.152,71.447 858,68.5C 861.27,67.868 864.437,67.2014 867.5,66.5 Z M 864.5,94.5 C 870.167,94.5 875.833,94.5 881.5,94.5C 881.5,97.8333 881.5,101.167 881.5,104.5C 876.156,104.666 870.823,104.499 865.5,104C 864.74,102.559 864.074,101.059 863.5,99.5C 864.309,97.9291 864.643,96.2624 864.5,94.5 Z"/></g>
<g><path style="opacity:0.943" fill="#055fce" d="M 223.5,140.5 C 450.5,140.5 677.5,140.5 904.5,140.5C 904.5,144.833 904.5,149.167 904.5,153.5C 677.5,153.5 450.5,153.5 223.5,153.5C 223.5,149.167 223.5,144.833 223.5,140.5 Z"/></g>
<g><path style="opacity:0.879" fill="#fefffe" d="M 375.5,164.5 C 378.448,164.223 381.281,164.556 384,165.5C 384.236,187.472 384.069,209.139 383.5,230.5C 373.542,230.276 363.542,230.109 353.5,230C 351.683,228.2 350.516,226.034 350,223.5C 349.333,213.167 349.333,202.833 350,192.5C 350.644,185.859 354.311,182.859 361,183.5C 365.811,184.198 370.644,184.531 375.5,184.5C 375.5,177.833 375.5,171.167 375.5,164.5 Z M 359.5,193.5 C 364.87,193.392 370.203,193.725 375.5,194.5C 375.5,203.5 375.5,212.5 375.5,221.5C 370.103,221.785 364.77,221.451 359.5,220.5C 358.197,211.441 358.197,202.441 359.5,193.5 Z"/></g>
<g><path style="opacity:0.901" fill="#fefffe" d="M 224.5,169.5 C 236.576,169.062 248.576,169.562 260.5,171C 262.894,172.952 264.394,175.452 265,178.5C 267,193.167 267,207.833 265,222.5C 263.885,225.946 261.718,228.446 258.5,230C 247.172,230.5 235.838,230.667 224.5,230.5C 224.5,210.167 224.5,189.833 224.5,169.5 Z M 233.5,180.5 C 240.508,180.334 247.508,180.5 254.5,181C 255,181.5 255.5,182 256,182.5C 256.667,194.167 256.667,205.833 256,217.5C 255.5,218 255,218.5 254.5,219C 247.615,220.425 240.615,220.925 233.5,220.5C 233.5,207.167 233.5,193.833 233.5,180.5 Z"/></g>
<g><path style="opacity:0.901" fill="#fefffe" d="M 278.5,183.5 C 284.509,183.334 290.509,183.501 296.5,184C 299.034,184.516 301.2,185.683 303,187.5C 304.41,196.084 304.91,204.75 304.5,213.5C 296.486,213.432 288.486,213.099 280.5,212.5C 280.02,215.685 280.686,218.519 282.5,221C 288.354,221.665 294.187,221.499 300,220.5C 303.553,221.058 305.386,223.224 305.5,227C 305.18,228.653 304.18,229.653 302.5,230C 293.833,230.667 285.167,230.667 276.5,230C 273.323,228.151 271.823,225.318 272,221.5C 271.333,212.5 271.333,203.5 272,194.5C 271.667,189.14 273.834,185.473 278.5,183.5 Z M 281.5,193.5 C 286.179,193.334 290.845,193.501 295.5,194C 296.451,197.057 296.784,200.223 296.5,203.5C 291.167,203.5 285.833,203.5 280.5,203.5C 280.253,200.061 280.586,196.728 281.5,193.5 Z"/></g>
<g><path style="opacity:0.89" fill="#fefffe" d="M 310.5,183.5 C 313.5,183.5 316.5,183.5 319.5,183.5C 319.333,195.838 319.5,208.171 320,220.5C 325,221.833 330,221.833 335,220.5C 335.5,208.171 335.667,195.838 335.5,183.5C 338.167,183.5 340.833,183.5 343.5,183.5C 343.5,199.167 343.5,214.833 343.5,230.5C 334.214,230.229 324.881,230.062 315.5,230C 312.617,228.411 311.117,225.911 311,222.5C 310.5,209.504 310.333,196.504 310.5,183.5 Z"/></g>
<g><path style="opacity:0.883" fill="#fefffe" d="M 401.5,183.5 C 407.176,183.334 412.843,183.501 418.5,184C 423.305,185.763 425.472,189.263 425,194.5C 425.5,206.495 425.667,218.495 425.5,230.5C 415.207,230.241 404.873,230.074 394.5,230C 393.299,229.097 392.465,227.931 392,226.5C 386.528,204.811 394.694,197.144 416.5,203.5C 416.784,200.223 416.451,197.057 415.5,194C 408.17,193.832 400.837,193.999 393.5,194.5C 392.671,191.531 392.505,188.531 393,185.5C 395.939,184.872 398.772,184.205 401.5,183.5 Z M 399.5,211.5 C 405.167,211.5 410.833,211.5 416.5,211.5C 416.5,214.833 416.5,218.167 416.5,221.5C 411.156,221.666 405.823,221.499 400.5,221C 398.161,218.113 397.828,214.946 399.5,211.5 Z"/></g>
<g><path style="opacity:0.91" fill="#fefffe" d="M 436.5,183.5 C 443.841,183.334 451.174,183.5 458.5,184C 460.101,184.273 461.601,184.773 463,185.5C 463.777,188.429 463.61,191.263 462.5,194C 455.162,194.11 447.828,194.11 440.5,194C 439.167,196.667 439.167,199.333 440.5,202C 447.167,202.333 453.833,202.667 460.5,203C 461.333,203.833 462.167,204.667 463,205.5C 464.586,212.057 464.92,218.724 464,225.5C 463.215,227.286 462.049,228.786 460.5,230C 451.167,230.667 441.833,230.667 432.5,230C 431.572,229.612 430.905,228.945 430.5,228C 431.09,225.804 431.757,223.638 432.5,221.5C 440.17,221.112 447.836,220.779 455.5,220.5C 456.833,217.833 456.833,215.167 455.5,212.5C 448.858,211.669 442.191,211.169 435.5,211C 432.617,209.411 431.117,206.911 431,203.5C 429.963,197.606 430.629,191.939 433,186.5C 434.145,185.364 435.312,184.364 436.5,183.5 Z"/></g>
</svg>
